1,Sofia ,Smith ,Canada
2,Maria ,Brown ,Brazil
3,Elena ,Martin ,Mexico
4,Zoe ,Roy ,France
5,Sebastian ,Lavoie ,Canada
6,Dylan ,Garcia ,Spain
7,Ian ,Cruz ,Mexico
8,Lucas ,Smith ,USA
9,Fabian ,Wilson ,USA
10,Liam ,Taylor ,Canada
11,William ,Thomas ,Great Britain
12,Logan ,Moore ,Canada
13,Oliver ,Martin ,France
14,Alysha ,Thompson ,Canada
15,Isabelle ,Lee ,Canada
16,Emily ,Clark ,USA
17,John ,Young ,China
18,David ,Wright ,Canada
19,Thomas ,Scott ,Canada
20,Helena ,Adams ,Canada
21,Sofia ,Carter ,USA
22,Liam ,Parker ,Canada
23,Emily ,Murphy ,USA
